<?xml version="1.0" encoding="UTF-8"?>
<svg width="353px" height="130px" viewBox="0 0 353 130" version="1.1" xmlns="http://www.w3.org/2000/svg" xmlns:xlink="http://www.w3.org/1999/xlink">
    <!-- Generator: Sketch 52.3 (67297) - http://www.bohemiancoding.com/sketch -->
    <title>Group 95</title>
    <desc>Created with Sketch.</desc>
    <g id="Page-1" stroke="none" stroke-width="1" fill="none" fill-rule="evenodd">
        <g id="GitLab-First-Look" transform="translate(-544.000000, -70.000000)">
            <g id="Group-95" transform="translate(546.000000, 72.000000)">
                <g id="Group-5" transform="translate(0.088757, 13.094618)" stroke-linecap="round" stroke-linejoin="round" stroke-width="4">
                    <path d="M0,0.292160643 L61.3676923,0.292160643" id="Stroke-1" stroke="#251B3F"></path>
                    <path d="M23.2894361,15.6626506 L54.9972956,15.6626506" id="Stroke-3" stroke-opacity="0.3" stroke="#000000"></path>
                </g>
                <path d="M64.7984093,28.7572691 L73.3205395,28.7572691" id="Stroke-6" stroke="#FC6D26" stroke-width="4" stroke-linecap="round" stroke-linejoin="round"></path>
                <path d="M260.535813,111.247229 L268.243328,111.247229" id="Stroke-7" stroke-opacity="0.3" stroke="#000000" stroke-width="4" stroke-linecap="round" stroke-linejoin="round"></path>
                <path d="M206.87574,111.247229 L251.136509,111.247229" id="Stroke-8" stroke="#FCA326" stroke-width="4" stroke-linecap="round" stroke-linejoin="round"></path>
                <g id="Group-13" transform="translate(218.363905, 82.532369)" stroke="#000000" stroke-linecap="round" stroke-linejoin="round" stroke-opacity="0.3" stroke-width="4">
                    <path d="M3.45595355,3.46901606 L3.45595355,0.336485944 L3.45595355,3.46901606 L6.58908964,3.46901606 L3.45595355,3.46901606 Z M3.45595355,3.46901606 L3.45595355,6.60154618 L3.45595355,3.46901606 L0.322817456,3.46901606 L3.45595355,3.46901606 Z" id="Combined-Shape"></path>
                </g>
                <polygon id="Fill-14" fill="#E24329" points="174.399531 98.1812369 174.399531 98.1812369 187.481418 58.3855743 161.318165 58.3855743"></polygon>
                <polygon id="Fill-16" fill="#FC6D26" points="174.39034 98.1812369 161.308453 58.3855743 142.991617 58.3855743"></polygon>
                <g id="Group-94" transform="translate(7.000000, 0.476145)">
                    <path d="M135.985559,57.9234217 L132.00491,70.0144659 C131.644599,71.1124177 132.034153,72.3241847 132.986104,73.0091647 L167.384283,97.7190843 L135.985559,57.9234217 Z" id="Fill-18" fill="#FCA326"></path>
                    <path d="M135.990677,57.9234217 L154.321612,57.9234217 L146.432375,33.9548675 C146.029245,32.7284819 144.269467,32.7284819 143.851193,33.9548675 L135.990677,57.9234217 Z" id="Fill-22" fill="#E24329"></path>
                    <polygon id="Fill-26" fill="#FC6D26" points="167.399531 97.7050924 180.481418 57.9094297 198.812353 57.9094297"></polygon>
                    <path d="M198.799246,57.9234217 L202.779896,70.0144659 C203.140206,71.1124177 202.751175,72.3241847 201.799224,73.0091647 L167.401045,97.7044659 L198.799246,57.9234217 Z" id="Fill-30" fill="#FCA326"></path>
                    <path d="M198.808907,57.9234217 L180.477972,57.9234217 L188.352587,33.9548675 C188.75624,32.7279598 190.516018,32.7279598 190.934291,33.9548675 L198.808907,57.9234217 Z" id="Fill-34" fill="#E24329"></path>
                    <path d="M198.808907,57.9234217 L180.477972,57.9234217 L188.352587,33.9548675 C188.75624,32.7279598 190.516018,32.7279598 190.934291,33.9548675 L198.808907,57.9234217 Z" id="Stroke-36" stroke="#251B3F" stroke-width="4" stroke-linecap="round" stroke-linejoin="round"></path>
                    <polygon id="Stroke-38" stroke="#251B3F" stroke-width="4" stroke-linecap="round" stroke-linejoin="round" points="167.399531 97.7050924 167.399531 97.7050924 180.481418 57.9094297 154.318165 57.9094297"></polygon>
                    <polygon id="Stroke-40" stroke="#251B3F" stroke-width="4" stroke-linecap="round" stroke-linejoin="round" points="167.39034 97.7050924 154.308453 57.9094297 135.991617 57.9094297"></polygon>
                    <path d="M135.985559,57.9234217 L132.00491,70.0144659 C131.644599,71.1124177 132.034153,72.3241847 132.986104,73.0091647 L167.384283,97.7190843 L135.985559,57.9234217 Z" id="Stroke-42" stroke="#251B3F" stroke-width="4" stroke-linecap="round" stroke-linejoin="round"></path>
                    <path d="M135.990677,57.9234217 L154.321612,57.9234217 L146.432375,33.9548675 C146.029245,32.7284819 144.269467,32.7284819 143.851193,33.9548675 L135.990677,57.9234217 Z" id="Stroke-44" stroke="#251B3F" stroke-width="4" stroke-linecap="round" stroke-linejoin="round"></path>
                    <polygon id="Stroke-46" stroke="#251B3F" stroke-width="4" stroke-linecap="round" stroke-linejoin="round" points="167.399531 97.7050924 180.481418 57.9094297 198.812353 57.9094297"></polygon>
                    <path d="M198.799246,57.9234217 L202.779896,70.0144659 C203.140206,71.1124177 202.751175,72.3241847 201.799224,73.0091647 L167.401045,97.7044659 L198.799246,57.9234217 Z" id="Stroke-48" stroke="#251B3F" stroke-width="4" stroke-linecap="round" stroke-linejoin="round"></path>
                    <polygon id="Fill-52" fill="#FCA326" points="217.500675 16.6244056 224.252061 20.3155703 217.500675 24.0077791 213.808274 30.7573373 210.115351 24.0077791 203.364487 20.3155703 210.115351 16.6244056 213.808274 9.87380321"></polygon>
                    <polygon id="Stroke-54" stroke="#251B3F" stroke-width="4" stroke-linecap="round" stroke-linejoin="round" points="217.500675 16.6244056 224.252061 20.3155703 217.500675 24.0077791 213.808274 30.7573373 210.115351 24.0077791 203.364487 20.3155703 210.115351 16.6244056 213.808274 9.87380321"></polygon>
                    <polygon id="Fill-56" fill="#FC6D26" points="228.765448 50.2399518 233.829118 53.0085863 228.765448 55.7772209 225.996278 60.8399116 223.227107 55.7772209 218.163437 53.0085863 223.227107 50.2399518 225.996278 45.177261"></polygon>
                    <polygon id="Stroke-58" stroke="#251B3F" stroke-width="4" stroke-linecap="round" stroke-linejoin="round" points="228.765448 50.2399518 233.829118 53.0085863 228.765448 55.7772209 225.996278 60.8399116 223.227107 55.7772209 218.163437 53.0085863 223.227107 50.2399518 225.996278 45.177261"></polygon>
                    <g id="Group-64" transform="translate(116.325444, 82.056225)" stroke="#000000" stroke-linecap="round" stroke-linejoin="round" stroke-opacity="0.3" stroke-width="4">
                        <path d="M3.34373506,3.46901606 L3.34373506,0.336485944 L3.34373506,3.46901606 L0.210598964,3.46901606 L3.34373506,3.46901606 Z M3.34373506,3.46901606 L3.34373506,6.60154618 L3.34373506,3.46901606 L6.47687115,3.46901606 L3.34373506,3.46901606 Z" id="Combined-Shape"></path>
                    </g>
                    <polygon id="Fill-65" fill="#FCA326" points="116.988363 16.6244056 110.236977 20.3155703 116.988363 24.0077791 120.680764 30.7573373 124.373165 24.0077791 131.124551 20.3155703 124.373165 16.6244056 120.680764 9.87380321"></polygon>
                    <polygon id="Stroke-67" stroke="#251B3F" stroke-width="4" stroke-linecap="round" stroke-linejoin="round" points="116.988363 16.6244056 110.236977 20.3155703 116.988363 24.0077791 120.680764 30.7573373 124.373165 24.0077791 131.124551 20.3155703 124.373165 16.6244056 120.680764 9.87380321"></polygon>
                    <polygon id="Fill-69" fill="#FC6D26" points="105.723068 50.2399518 100.65992 53.0085863 105.723068 55.7772209 108.49276 60.8399116 111.26193 55.7772209 116.3256 53.0085863 111.26193 50.2399518 108.49276 45.177261"></polygon>
                    <polygon id="Stroke-71" stroke="#251B3F" stroke-width="4" stroke-linecap="round" stroke-linejoin="round" points="105.723068 50.2399518 100.65992 53.0085863 105.723068 55.7772209 108.49276 60.8399116 111.26193 55.7772209 116.3256 53.0085863 111.26193 50.2399518 108.49276 45.177261"></polygon>
                    <polygon id="Stroke-73" stroke="#251B3F" stroke-width="4" stroke-linecap="round" stroke-linejoin="round" points="303.459308 82.6733333 317.700978 82.6733333 317.700978 76.9778715 303.459308 76.9778715"></polygon>
                    <path d="M311.149486,54.7653614 C311.149486,56.4950402 309.746363,57.8978916 308.01635,57.8978916 C306.286336,57.8978916 304.883214,56.4950402 304.883214,54.7653614 C304.883214,53.0351606 306.286336,51.6328313 308.01635,51.6328313 C309.746363,51.6328313 311.149486,53.0351606 311.149486,54.7653614" id="Fill-75" fill="#FCA326"></path>
                    <path d="M311.149486,54.7653614 C311.149486,56.4950402 309.746363,57.8978916 308.01635,57.8978916 C306.286336,57.8978916 304.883214,56.4950402 304.883214,54.7653614 C304.883214,53.0351606 306.286336,51.6328313 308.01635,51.6328313 C309.746363,51.6328313 311.149486,53.0351606 311.149486,54.7653614 Z" id="Stroke-76" stroke="#251B3F" stroke-width="4" stroke-linecap="round" stroke-linejoin="round"></path>
                    <path d="M327.100229,64.4948956 C327.100229,67.0901968 324.995806,69.1936908 322.400525,69.1936908 C319.804722,69.1936908 317.700821,67.0901968 317.700821,64.4948956 C317.700821,61.9001165 319.804722,59.7961004 322.400525,59.7961004 C324.995806,59.7961004 327.100229,61.9001165 327.100229,64.4948956" id="Fill-77" fill="#FC6D26"></path>
                    <path d="M327.100229,64.4948956 C327.100229,67.0901968 324.995806,69.1936908 322.400525,69.1936908 C319.804722,69.1936908 317.700821,67.0901968 317.700821,64.4948956 C317.700821,61.9001165 319.804722,59.7961004 322.400525,59.7961004 C324.995806,59.7961004 327.100229,61.9001165 327.100229,64.4948956 Z" id="Stroke-78" stroke="#251B3F" stroke-width="4" stroke-linecap="round" stroke-linejoin="round"></path>
                    <path d="M299.471609,69.0514217 C299.471609,69.9165221 298.769786,70.6176867 297.905041,70.6176867 C297.039773,70.6176867 296.338473,69.9165221 296.338473,69.0514217 C296.338473,68.1863213 297.039773,67.4851566 297.905041,67.4851566 C298.769786,67.4851566 299.471609,68.1863213 299.471609,69.0514217" id="Fill-79" fill-opacity="0.3" fill="#000000"></path>
                    <path d="M315.240317,94.7693896 L315.240317,82.6731245 L305.919237,82.6731245 L305.919237,94.7693896 C299.543305,96.7538474 294.914097,102.698867 294.914097,109.726699 C294.914097,118.377181 301.928144,125.389349 310.579777,125.389349 C319.231933,125.389349 326.245458,118.377181 326.245458,109.726699 C326.245458,102.698867 321.616249,96.7538474 315.240317,94.7693896 Z" id="Stroke-80" stroke="#251B3F" stroke-width="4" stroke-linecap="round" stroke-linejoin="round"></path>
                    <path d="M319.409686,105.31312 C319.409686,106.177699 318.708386,106.879386 317.843118,106.879386 C316.97785,106.879386 316.27655,106.177699 316.27655,105.31312 C316.27655,104.44802 316.97785,103.746855 317.843118,103.746855 C318.708386,103.746855 319.409686,104.44802 319.409686,105.31312" id="Fill-81" fill-opacity="0.3" fill="#000000"></path>
                    <path d="M317.819671,113.049635 C317.819671,111.47606 316.544485,110.201643 314.971129,110.201643 C313.39725,110.201643 312.123108,111.47606 312.123108,113.049635 L295.275191,113.049635 C296.799984,120.102526 303.068867,125.389715 310.580038,125.389715 C318.09121,125.389715 324.359571,120.102526 325.884364,113.049635 L317.819671,113.049635 Z" id="Fill-82" fill="#9795F9"></path>
                    <path d="M317.819671,113.049635 C317.819671,111.47606 316.544485,110.201643 314.971129,110.201643 C313.39725,110.201643 312.123108,111.47606 312.123108,113.049635 L295.275191,113.049635 C296.799984,120.102526 303.068867,125.389715 310.580038,125.389715 C318.09121,125.389715 324.359571,120.102526 325.884364,113.049635 L317.819671,113.049635 Z" id="Stroke-83" stroke="#251B3F" stroke-width="4" stroke-linecap="round" stroke-linejoin="round"></path>
                    <path d="M308.01635,118.649815 C308.01635,119.514916 307.315049,120.21608 306.449782,120.21608 C305.584514,120.21608 304.883214,119.514916 304.883214,118.649815 C304.883214,117.784715 305.584514,117.08355 306.449782,117.08355 C307.315049,117.08355 308.01635,117.784715 308.01635,118.649815" id="Fill-84" fill="#251B3F"></path>
                    <polygon id="Fill-85" fill="#FCA326" points="291.79177 0.13424498 294.505066 8.5116747 303.301345 8.5116747 296.175027 13.6688635 298.917566 22.016012 291.79177 16.8290643 284.695217 22.016012 287.438277 13.6688635 280.282195 8.5116747 289.108239 8.5116747"></polygon>
                    <polygon id="Stroke-86" stroke="#251B3F" stroke-width="4" stroke-linecap="round" stroke-linejoin="round" points="291.79177 0.13424498 294.505066 8.5116747 303.301345 8.5116747 296.175027 13.6688635 298.917566 22.016012 291.79177 16.8290643 284.695217 22.016012 287.438277 13.6688635 280.282195 8.5116747 289.108239 8.5116747"></polygon>
                    <polygon id="Fill-87" fill="#FCA326" points="330.156865 0.13424498 332.869638 8.5116747 341.665918 8.5116747 334.540122 13.6688635 337.282661 22.016012 330.156865 16.8290643 323.059789 22.016012 325.803372 13.6688635 318.647289 8.5116747 327.472812 8.5116747"></polygon>
                    <polygon id="Stroke-88" stroke="#251B3F" stroke-width="4" stroke-linecap="round" stroke-linejoin="round" points="330.156865 0.13424498 332.869638 8.5116747 341.665918 8.5116747 334.540122 13.6688635 337.282661 22.016012 330.156865 16.8290643 323.059789 22.016012 325.803372 13.6688635 318.647289 8.5116747 327.472812 8.5116747"></polygon>
                    <path d="M266.449764,18.0346185 L255.750104,18.0346185 C255.173085,18.0346185 254.705726,17.5668273 254.705726,16.9904418 L254.705726,6.29285141 C254.705726,5.71594378 255.173085,5.2486747 255.750104,5.2486747 L266.449764,5.2486747 C267.026261,5.2486747 267.494143,5.71594378 267.494143,6.29285141 L267.494143,16.9904418 C267.494143,17.5668273 267.026261,18.0346185 266.449764,18.0346185 Z" id="Stroke-89" stroke-opacity="0.3" stroke="#000000" stroke-width="4" stroke-linecap="round" stroke-linejoin="round"></path>
                    <path d="M86.0384615,118.080321 L2.48816568,118.080321 C1.33464941,118.080321 0.399408284,117.145261 0.399408284,115.991968 L0.399408284,66.9156627 C0.399408284,65.7623695 1.33464941,64.8273092 2.48816568,64.8273092 L86.0384615,64.8273092 C87.1919778,64.8273092 88.1272189,65.7623695 88.1272189,66.9156627 L88.1272189,115.991968 C88.1272189,117.145261 87.1919778,118.080321 86.0384615,118.080321 Z" id="Stroke-90" stroke="#251B3F" stroke-width="4" stroke-linecap="round" stroke-linejoin="round"></path>
                    <path d="M37.9730729,83.0183293 C36.5976262,81.7423454 34.4477726,81.8217028 33.1715419,83.1989719 L24.4149487,92.6341526 L22.0802401,90.5306586 C20.6859945,89.2750361 18.536141,89.3867631 17.28132,90.7791727 C16.0249324,92.1736707 16.1366809,94.3215422 17.5304043,95.5782088 L22.3528229,99.9230281 C22.4426395,100.003952 22.5423777,100.065036 22.6384605,100.134996 C22.7105226,100.188249 22.7789294,100.249855 22.8546469,100.296321 C22.9543851,100.356884 23.0598673,100.400217 23.1643052,100.449815 C23.2499442,100.491582 23.331928,100.541181 23.420178,100.574072 C23.5376706,100.618972 23.6593407,100.645076 23.7799664,100.67588 C23.8593392,100.695719 23.9355788,100.726 24.0154738,100.740618 C24.2175611,100.777687 24.4222593,100.796482 24.6264354,100.796482 C24.8567209,100.796482 25.0864842,100.772988 25.3125922,100.726 C25.3950981,100.709815 25.4734265,100.674313 25.5543658,100.650819 C25.695357,100.611141 25.8379146,100.577205 25.9736839,100.518731 C26.0723777,100.47592 26.1621942,100.412747 26.2567105,100.36106 C26.3679368,100.299976 26.4822963,100.247767 26.5872564,100.173631 C26.6843836,100.105759 26.7684561,100.01596 26.8587948,99.9360803 C26.9454783,99.8603775 27.0389501,99.7956386 27.1188451,99.709494 L27.1496543,99.6755582 C27.1501765,99.6750361 27.1512209,99.6745141 27.151743,99.673992 C27.1522652,99.6734699 27.1527874,99.6724257 27.1533096,99.6719036 L38.1532283,87.8189317 C39.429459,86.4442731 39.3490419,84.2943133 37.9730729,83.0183293" id="Fill-91" fill="#FC6D26"></path>
                    <path d="M37.9730729,83.0183293 C36.5976262,81.7423454 34.4477726,81.8217028 33.1715419,83.1989719 L24.4149487,92.6341526 L22.0802401,90.5306586 C20.6859945,89.2750361 18.536141,89.3867631 17.28132,90.7791727 C16.0249324,92.1736707 16.1366809,94.3215422 17.5304043,95.5782088 L22.3528229,99.9230281 C22.4426395,100.003952 22.5423777,100.065036 22.6384605,100.134996 C22.7105226,100.188249 22.7789294,100.249855 22.8546469,100.296321 C22.9543851,100.356884 23.0598673,100.400217 23.1643052,100.449815 C23.2499442,100.491582 23.331928,100.541181 23.420178,100.574072 C23.5376706,100.618972 23.6593407,100.645076 23.7799664,100.67588 C23.8593392,100.695719 23.9355788,100.726 24.0154738,100.740618 C24.2175611,100.777687 24.4222593,100.796482 24.6264354,100.796482 C24.8567209,100.796482 25.0864842,100.772988 25.3125922,100.726 C25.3950981,100.709815 25.4734265,100.674313 25.5543658,100.650819 C25.695357,100.611141 25.8379146,100.577205 25.9736839,100.518731 C26.0723777,100.47592 26.1621942,100.412747 26.2567105,100.36106 C26.3679368,100.299976 26.4822963,100.247767 26.5872564,100.173631 C26.6843836,100.105759 26.7684561,100.01596 26.8587948,99.9360803 C26.9454783,99.8603775 27.0389501,99.7956386 27.1188451,99.709494 L27.1496543,99.6755582 C27.1501765,99.6750361 27.1512209,99.6745141 27.151743,99.673992 C27.1522652,99.6734699 27.1527874,99.6724257 27.1533096,99.6719036 L38.1532283,87.8189317 C39.429459,86.4442731 39.3490419,84.2943133 37.9730729,83.0183293 Z" id="Stroke-92" stroke="#251B3F" stroke-width="4" stroke-linecap="round" stroke-linejoin="round"></path>
                    <path d="M71.0321496,94.4797871 L67.5768226,91.2741647 L70.7830652,87.8189839 C72.0598182,86.4443253 71.9788788,84.2943655 70.6034321,83.0183815 C69.2285075,81.7423976 67.0770874,81.821755 65.8013788,83.1990241 L62.5956584,86.6536827 L59.1398093,83.4475382 C57.7648848,82.1715542 55.614509,82.2509116 54.3377561,83.6276586 C53.0615253,85.0023173 53.1419425,87.1522771 54.5184336,88.428261 L57.9737605,91.6338835 L54.7675179,95.0890643 C53.4907649,96.4637229 53.5711821,98.6136827 54.947151,99.8896667 C55.6009321,100.496333 56.4296466,100.796534 57.2567945,100.796534 C58.1695815,100.796534 59.0797575,100.431072 59.7492043,99.7095462 L62.9549247,96.2543655 L66.4107738,99.46051 C67.0645549,100.067699 67.8932694,100.367378 68.7204173,100.367378 C69.6326821,100.367378 70.5433803,100.002438 71.2128271,99.2798675 C72.4890578,97.9057309 72.4081185,95.7557711 71.0321496,94.4797871 Z" id="Stroke-93" stroke-opacity="0.3" stroke="#000000" stroke-width="4" stroke-linecap="round" stroke-linejoin="round"></path>
                </g>
            </g>
        </g>
    </g>
</svg>